<?xml version="1.0" encoding="UTF-8" standalone="no"?>
<svg
   width="1260"
   height="550"
   viewBox="0 0 1260 550"
   version="1.1"
   id="svg408"
   sodipodi:docname="communication-sequence.svg"
   inkscape:version="1.3.2 (091e20ef0f, 2023-11-25)"
   xmlns:inkscape="http://www.inkscape.org/namespaces/inkscape"
   xmlns:sodipodi="http://sodipodi.sourceforge.net/DTD/sodipodi-0.dtd"
   xmlns:xlink="http://www.w3.org/1999/xlink"
   xmlns="http://www.w3.org/2000/svg"
   xmlns:svg="http://www.w3.org/2000/svg">
  <sodipodi:namedview
     id="namedview408"
     pagecolor="#ffffff"
     bordercolor="#000000"
     borderopacity="0.25"
     inkscape:showpageshadow="2"
     inkscape:pageopacity="0.0"
     inkscape:pagecheckerboard="0"
     inkscape:deskcolor="#d1d1d1"
     inkscape:zoom="0.73635665"
     inkscape:cx="643.70981"
     inkscape:cy="226.11326"
     inkscape:window-width="1920"
     inkscape:window-height="1011"
     inkscape:window-x="0"
     inkscape:window-y="0"
     inkscape:window-maximized="1"
     inkscape:current-layer="svg408" />
  <defs
     id="defs38">
    <g
       id="g38">
      <g
         id="glyph-0-0">
        <path
           d="m 1.375,-10.203125 h 2.0625 l 2.59375,6.9375 2.625,-6.9375 h 2.0625 V 0 H 9.359375 v -8.96875 l -2.625,7 H 5.34375 l -2.625,-7 V 0 H 1.375 Z m 0,0"
           id="path1" />
      </g>
      <g
         id="glyph-0-1">
        <path
           d="m 4.796875,-3.84375 c -1.011719,0 -1.714844,0.117188 -2.109375,0.34375 -0.398438,0.230469 -0.59375,0.625 -0.59375,1.1875 0,0.449219 0.144531,0.804688 0.4375,1.0625 0.300781,0.261719 0.703125,0.390625 1.203125,0.390625 0.695313,0 1.253906,-0.242187 1.671875,-0.734375 0.425781,-0.5 0.640625,-1.15625 0.640625,-1.96875 V -3.84375 Z M 7.3125,-4.375 V 0 H 6.046875 V -1.15625 C 5.765625,-0.695312 5.40625,-0.351562 4.96875,-0.125 4.539062,0.09375 4.019531,0.203125 3.40625,0.203125 c -0.78125,0 -1.40625,-0.21875 -1.875,-0.65625 -0.460938,-0.445313 -0.6875,-1.039063 -0.6875,-1.78125 0,-0.851563 0.285156,-1.5 0.859375,-1.9375 0.582031,-0.4375 1.441406,-0.65625 2.578125,-0.65625 h 1.765625 v -0.125 c 0,-0.582031 -0.195313,-1.03125 -0.578125,-1.34375 C 5.09375,-6.617188 4.5625,-6.78125 3.875,-6.78125 c -0.4375,0 -0.867188,0.058594 -1.28125,0.171875 -0.417969,0.105469 -0.8125,0.261719 -1.1875,0.46875 V -7.3125 C 1.863281,-7.488281 2.304688,-7.617188 2.734375,-7.703125 3.171875,-7.796875 3.59375,-7.84375 4,-7.84375 c 1.113281,0 1.941406,0.289062 2.484375,0.859375 C 7.035156,-6.410156 7.3125,-5.539062 7.3125,-4.375 Z m 0,0"
           id="path2" />
      </g>
      <g
         id="glyph-0-2">
        <path
           d="M 1.3125,-7.65625 H 2.578125 V 0 H 1.3125 Z m 0,-2.984375 h 1.265625 v 1.59375 H 1.3125 Z m 0,0"
           id="path3" />
      </g>
      <g
         id="glyph-0-3">
        <path
           d="M 7.6875,-4.625 V 0 H 6.421875 V -4.578125 C 6.421875,-5.304688 6.28125,-5.847656 6,-6.203125 5.71875,-6.566406 5.296875,-6.75 4.734375,-6.75 4.054688,-6.75 3.519531,-6.53125 3.125,-6.09375 2.726562,-5.664062 2.53125,-5.078125 2.53125,-4.328125 V 0 H 1.265625 V -7.65625 H 2.53125 v 1.1875 C 2.832031,-6.925781 3.1875,-7.269531 3.59375,-7.5 c 0.414062,-0.226562 0.890625,-0.34375 1.421875,-0.34375 0.875,0 1.535156,0.277344 1.984375,0.828125 0.457031,0.542969 0.6875,1.339844 0.6875,2.390625 z m 0,0"
           id="path4" />
      </g>
      <g
         id="glyph-0-4" />
      <g
         id="glyph-0-5">
        <path
           d="m 7.28125,-6.1875 c 0.3125,-0.5625 0.6875,-0.976562 1.125,-1.25 0.4375,-0.269531 0.953125,-0.40625 1.546875,-0.40625 0.800781,0 1.414063,0.28125 1.84375,0.84375 0.4375,0.554688 0.65625,1.34375 0.65625,2.375 V 0 H 11.1875 v -4.578125 c 0,-0.738281 -0.132812,-1.285156 -0.390625,-1.640625 C 10.535156,-6.570312 10.140625,-6.75 9.609375,-6.75 8.953125,-6.75 8.4375,-6.53125 8.0625,-6.09375 7.6875,-5.664062 7.5,-5.078125 7.5,-4.328125 V 0 H 6.234375 v -4.578125 c 0,-0.738281 -0.132813,-1.285156 -0.390625,-1.640625 C 5.582031,-6.570312 5.179688,-6.75 4.640625,-6.75 c -0.648437,0 -1.164063,0.21875 -1.546875,0.65625 -0.375,0.4375 -0.5625,1.027344 -0.5625,1.765625 V 0 H 1.265625 V -7.65625 H 2.53125 v 1.1875 C 2.820312,-6.9375 3.164062,-7.28125 3.5625,-7.5 3.96875,-7.726562 4.445312,-7.84375 5,-7.84375 c 0.550781,0 1.019531,0.140625 1.40625,0.421875 0.394531,0.28125 0.6875,0.695313 0.875,1.234375 z m 0,0"
           id="path5" />
      </g>
      <g
         id="glyph-0-6">
        <path
           d="M 6.828125,-7.359375 V -6.1875 C 6.472656,-6.382812 6.113281,-6.53125 5.75,-6.625 5.394531,-6.726562 5.035156,-6.78125 4.671875,-6.78125 c -0.8125,0 -1.449219,0.261719 -1.90625,0.78125 -0.449219,0.523438 -0.671875,1.246094 -0.671875,2.171875 0,0.9375 0.222656,1.667969 0.671875,2.1875 0.457031,0.511719 1.09375,0.765625 1.90625,0.765625 0.363281,0 0.722656,-0.046875 1.078125,-0.140625 0.363281,-0.09375 0.722656,-0.238281 1.078125,-0.4375 v 1.15625 c -0.355469,0.167969 -0.71875,0.29296875 -1.09375,0.375 -0.375,0.082031 -0.773437,0.125 -1.1875,0.125 -1.15625,0 -2.078125,-0.359375 -2.765625,-1.078125 -0.679688,-0.726562 -1.015625,-1.710938 -1.015625,-2.953125 0,-1.238281 0.34375,-2.21875 1.03125,-2.9375 0.6875,-0.71875 1.628906,-1.078125 2.828125,-1.078125 0.382812,0 0.757812,0.042969 1.125,0.125 0.375,0.074219 0.734375,0.195312 1.078125,0.359375 z m 0,0"
           id="path6" />
      </g>
      <g
         id="glyph-0-7">
        <path
           d="M 5.75,-6.484375 C 5.613281,-6.566406 5.460938,-6.625 5.296875,-6.65625 5.128906,-6.695312 4.945312,-6.71875 4.75,-6.71875 c -0.71875,0 -1.273438,0.234375 -1.65625,0.703125 -0.375,0.460937 -0.5625,1.121094 -0.5625,1.984375 V 0 H 1.265625 V -7.65625 H 2.53125 v 1.1875 C 2.800781,-6.9375 3.144531,-7.28125 3.5625,-7.5 c 0.425781,-0.226562 0.941406,-0.34375 1.546875,-0.34375 0.09375,0 0.191406,0.00781 0.296875,0.015625 0.101562,0.011719 0.21875,0.03125 0.34375,0.0625 z m 0,0"
           id="path7" />
      </g>
      <g
         id="glyph-0-8">
        <path
           d="m 4.28125,-6.78125 c -0.667969,0 -1.199219,0.265625 -1.59375,0.796875 -0.398438,0.523437 -0.59375,1.242187 -0.59375,2.15625 0,0.917969 0.191406,1.640625 0.578125,2.171875 0.394531,0.523438 0.929687,0.78125 1.609375,0.78125 0.675781,0 1.207031,-0.257812 1.59375,-0.78125 0.394531,-0.53125 0.59375,-1.253906 0.59375,-2.171875 0,-0.90625 -0.199219,-1.625 -0.59375,-2.15625 C 5.488281,-6.515625 4.957031,-6.78125 4.28125,-6.78125 Z m 0,-1.0625 c 1.09375,0 1.953125,0.359375 2.578125,1.078125 0.625,0.710937 0.9375,1.6875 0.9375,2.9375 0,1.261719 -0.3125,2.25 -0.9375,2.96875 -0.625,0.710937 -1.484375,1.0625 -2.578125,1.0625 -1.09375,0 -1.953125,-0.351563 -2.578125,-1.0625 -0.625,-0.71875 -0.9375,-1.707031 -0.9375,-2.96875 0,-1.25 0.3125,-2.226563 0.9375,-2.9375 0.625,-0.71875 1.484375,-1.078125 2.578125,-1.078125 z m 0,0"
           id="path8" />
      </g>
      <g
         id="glyph-0-9">
        <path
           d="M 0.6875,-4.390625 H 4.375 V -3.28125 H 0.6875 Z m 0,0"
           id="path9" />
      </g>
      <g
         id="glyph-0-10">
        <path
           d="m 2.5625,-9.828125 v 2.171875 h 2.59375 v 0.984375 H 2.5625 v 4.15625 c 0,0.617187 0.082031,1.015625 0.25,1.203125 0.175781,0.179688 0.523438,0.265625 1.046875,0.265625 H 5.15625 V 0 H 3.859375 C 2.890625,0 2.21875,-0.179688 1.84375,-0.546875 1.476562,-0.910156 1.296875,-1.566406 1.296875,-2.515625 v -4.15625 H 0.375 V -7.65625 h 0.921875 v -2.171875 z m 0,0"
           id="path10" />
      </g>
      <g
         id="glyph-0-11">
        <path
           d="M 1.3125,-10.640625 H 2.578125 V 0 H 1.3125 Z m 0,0"
           id="path11" />
      </g>
      <g
         id="glyph-0-12">
        <path
           d="M 7.875,-4.140625 V -3.53125 H 2.078125 c 0.0625,0.867188 0.320313,1.527344 0.78125,1.984375 0.46875,0.449219 1.117187,0.671875 1.953125,0.671875 0.488281,0 0.957031,-0.054688 1.40625,-0.171875 0.457031,-0.113281 0.910156,-0.289063 1.359375,-0.53125 v 1.1875 c -0.460937,0.1875 -0.929687,0.3359375 -1.40625,0.4375 -0.46875,0.101563 -0.945313,0.15625 -1.421875,0.15625 -1.230469,0 -2.203125,-0.351563 -2.921875,-1.0625 -0.710937,-0.71875 -1.0625,-1.679687 -1.0625,-2.890625 0,-1.257812 0.335937,-2.253906 1.015625,-2.984375 0.675781,-0.738281 1.59375,-1.109375 2.75,-1.109375 1.03125,0 1.84375,0.335938 2.4375,1 0.601562,0.65625 0.90625,1.558594 0.90625,2.703125 z m -1.265625,-0.375 C 6.597656,-5.203125 6.40625,-5.75 6.03125,-6.15625 c -0.375,-0.414062 -0.871094,-0.625 -1.484375,-0.625 -0.710937,0 -1.277344,0.203125 -1.703125,0.609375 C 2.425781,-5.773438 2.1875,-5.21875 2.125,-4.5 Z m 0,0"
           id="path12" />
      </g>
      <g
         id="glyph-0-13">
        <path
           d="m 8.328125,-1.453125 v -2.75 h -2.25 v -1.125 h 3.625 v 4.375 C 9.171875,-0.578125 8.582031,-0.289062 7.9375,-0.09375 7.289062,0.101562 6.601562,0.203125 5.875,0.203125 4.28125,0.203125 3.03125,-0.257812 2.125,-1.1875 1.226562,-2.125 0.78125,-3.425781 0.78125,-5.09375 c 0,-1.664062 0.445312,-2.960938 1.34375,-3.890625 0.90625,-0.9375 2.15625,-1.40625 3.75,-1.40625 0.664062,0 1.296875,0.08594 1.890625,0.25 0.601563,0.15625 1.160156,0.398437 1.671875,0.71875 v 1.46875 c -0.511719,-0.425781 -1.054688,-0.75 -1.625,-0.96875 C 7.238281,-9.140625 6.632812,-9.25 6,-9.25 c -1.25,0 -2.1875,0.351562 -2.8125,1.046875 -0.625,0.6875 -0.9375,1.726563 -0.9375,3.109375 0,1.375 0.3125,2.414062 0.9375,3.109375 C 3.8125,-1.285156 4.75,-0.9375 6,-0.9375 c 0.488281,0 0.921875,-0.039062 1.296875,-0.125 0.382813,-0.082031 0.726563,-0.210938 1.03125,-0.390625 z m 0,0"
           id="path13" />
      </g>
      <g
         id="glyph-0-14">
        <path
           d="m 6.8125,-3.828125 c 0,-0.914063 -0.195312,-1.632813 -0.578125,-2.15625 -0.375,-0.53125 -0.898437,-0.796875 -1.5625,-0.796875 -0.667969,0 -1.195313,0.265625 -1.578125,0.796875 -0.375,0.523437 -0.5625,1.242187 -0.5625,2.15625 0,0.929687 0.1875,1.65625 0.5625,2.1875 0.382812,0.523437 0.910156,0.78125 1.578125,0.78125 0.664063,0 1.1875,-0.257813 1.5625,-0.78125 0.382813,-0.53125 0.578125,-1.257813 0.578125,-2.1875 z M 2.53125,-6.5 c 0.269531,-0.445312 0.601562,-0.78125 1,-1 0.40625,-0.226562 0.890625,-0.34375 1.453125,-0.34375 0.925781,0 1.679687,0.371094 2.265625,1.109375 0.582031,0.742187 0.875,1.710937 0.875,2.90625 0,1.210937 -0.292969,2.183594 -0.875,2.921875 -0.585938,0.742188 -1.339844,1.109375 -2.265625,1.109375 -0.5625,0 -1.046875,-0.109375 -1.453125,-0.328125 -0.398438,-0.226562 -0.730469,-0.570312 -1,-1.03125 V 0 H 1.265625 V -10.640625 H 2.53125 Z m 0,0"
           id="path14" />
      </g>
      <g
         id="glyph-0-15">
        <path
           d="m 6.359375,-6.5 v -4.140625 h 1.25 V 0 h -1.25 v -1.15625 c -0.261719,0.460938 -0.59375,0.804688 -1,1.03125 -0.40625,0.21875 -0.890625,0.328125 -1.453125,0.328125 -0.929688,0 -1.683594,-0.367187 -2.265625,-1.109375 -0.585937,-0.738281 -0.875,-1.710938 -0.875,-2.921875 0,-1.195313 0.289063,-2.164063 0.875,-2.90625 0.582031,-0.738281 1.335937,-1.109375 2.265625,-1.109375 0.5625,0 1.046875,0.117188 1.453125,0.34375 0.40625,0.21875 0.738281,0.554688 1,1 z m -4.28125,2.671875 c 0,0.929687 0.1875,1.65625 0.5625,2.1875 0.382813,0.523437 0.910156,0.78125 1.578125,0.78125 0.65625,0 1.175781,-0.257813 1.5625,-0.78125 0.382812,-0.53125 0.578125,-1.257813 0.578125,-2.1875 0,-0.914063 -0.195313,-1.632813 -0.578125,-2.15625 C 5.394531,-6.515625 4.875,-6.78125 4.21875,-6.78125 c -0.667969,0 -1.195312,0.265625 -1.578125,0.796875 -0.375,0.523437 -0.5625,1.242187 -0.5625,2.15625 z m 0,0"
           id="path15" />
      </g>
      <g
         id="glyph-0-16">
        <path
           d="M 0.421875,-7.65625 H 1.75 L 4.140625,-1.234375 6.53125,-7.65625 H 7.875 L 5,0 H 3.28125 Z m 0,0"
           id="path16" />
      </g>
      <g
         id="glyph-0-17">
        <path
           d="m 6.203125,-7.4375 v 1.203125 C 5.847656,-6.421875 5.476562,-6.554688 5.09375,-6.640625 4.707031,-6.734375 4.3125,-6.78125 3.90625,-6.78125 3.28125,-6.78125 2.8125,-6.6875 2.5,-6.5 c -0.3125,0.1875 -0.46875,0.476562 -0.46875,0.859375 0,0.292969 0.109375,0.523437 0.328125,0.6875 0.226563,0.167969 0.679687,0.324219 1.359375,0.46875 L 4.140625,-4.375 c 0.894531,0.1875 1.53125,0.460938 1.90625,0.8125 0.375,0.34375 0.5625,0.828125 0.5625,1.453125 0,0.710937 -0.28125,1.273437 -0.84375,1.6875 -0.5625,0.41796875 -1.335937,0.625 -2.3125,0.625 -0.417969,0 -0.851563,-0.042969 -1.296875,-0.125 C 1.71875,-0.00390625 1.253906,-0.125 0.765625,-0.28125 v -1.296875 c 0.457031,0.242187 0.910156,0.421875 1.359375,0.546875 0.457031,0.117188 0.90625,0.171875 1.34375,0.171875 0.59375,0 1.046875,-0.097656 1.359375,-0.296875 0.320313,-0.207031 0.484375,-0.492188 0.484375,-0.859375 0,-0.34375 -0.117188,-0.601563 -0.34375,-0.78125 -0.230469,-0.1875 -0.734375,-0.363281 -1.515625,-0.53125 L 3.015625,-3.4375 C 2.242188,-3.59375 1.679688,-3.84375 1.328125,-4.1875 0.984375,-4.53125 0.8125,-4.992188 0.8125,-5.578125 0.8125,-6.304688 1.066406,-6.863281 1.578125,-7.25 2.085938,-7.644531 2.8125,-7.84375 3.75,-7.84375 c 0.46875,0 0.90625,0.039062 1.3125,0.109375 0.414062,0.0625 0.796875,0.164063 1.140625,0.296875 z m 0,0"
           id="path17" />
      </g>
      <g
         id="glyph-0-18">
        <path
           d="m 4.34375,-10.625 c -0.617188,1.054688 -1.074219,2.09375 -1.375,3.125 -0.292969,1.023438 -0.4375,2.058594 -0.4375,3.109375 0,1.054687 0.148438,2.09375 0.453125,3.125 0.300781,1.03125 0.753906,2.066406 1.359375,3.109375 H 3.25 C 2.5625,0.769531 2.046875,-0.28125 1.703125,-1.3125 c -0.335937,-1.03125 -0.5,-2.054688 -0.5,-3.078125 0,-1.019531 0.164063,-2.046875 0.5,-3.078125 C 2.046875,-8.5 2.5625,-9.550781 3.25,-10.625 Z m 0,0"
           id="path18" />
      </g>
      <g
         id="glyph-0-19">
        <path
           d="m 2.75,-9.078125 v 3.84375 h 1.734375 c 0.644531,0 1.144531,-0.164063 1.5,-0.5 0.351563,-0.332031 0.53125,-0.804687 0.53125,-1.421875 0,-0.613281 -0.179687,-1.085938 -0.53125,-1.421875 -0.355469,-0.332031 -0.855469,-0.5 -1.5,-0.5 z m -1.375,-1.125 h 3.109375 c 1.144531,0 2.007813,0.261719 2.59375,0.78125 0.59375,0.511719 0.890625,1.265625 0.890625,2.265625 0,1.011719 -0.296875,1.773438 -0.890625,2.28125 -0.585937,0.511719 -1.449219,0.765625 -2.59375,0.765625 H 2.75 V 0 H 1.375 Z m 0,0"
           id="path19" />
      </g>
      <g
         id="glyph-0-20">
        <path
           d="m 9.015625,-9.421875 v 1.453125 c -0.46875,-0.425781 -0.96875,-0.742188 -1.5,-0.953125 C 6.992188,-9.140625 6.441406,-9.25 5.859375,-9.25 c -1.167969,0 -2.0625,0.359375 -2.6875,1.078125 C 2.554688,-7.460938 2.25,-6.4375 2.25,-5.09375 2.25,-3.75 2.554688,-2.71875 3.171875,-2 c 0.625,0.710938 1.519531,1.0625 2.6875,1.0625 0.582031,0 1.132813,-0.101562 1.65625,-0.3125 0.53125,-0.21875 1.03125,-0.546875 1.5,-0.984375 v 1.453125 c -0.480469,0.324219 -0.992187,0.570312 -1.53125,0.734375 -0.542969,0.164063 -1.117187,0.25 -1.71875,0.25 -1.542969,0 -2.761719,-0.472656 -3.65625,-1.421875 -0.886719,-0.945312 -1.328125,-2.238281 -1.328125,-3.875 0,-1.632812 0.441406,-2.925781 1.328125,-3.875 0.894531,-0.945312 2.113281,-1.421875 3.65625,-1.421875 0.613281,0 1.191406,0.08594 1.734375,0.25 0.539062,0.15625 1.046875,0.398437 1.515625,0.71875 z m 0,0"
           id="path20" />
      </g>
      <g
         id="glyph-0-21">
        <path
           d="M 1.125,-10.625 H 2.21875 C 2.894531,-9.550781 3.40625,-8.5 3.75,-7.46875 4.09375,-6.4375 4.265625,-5.410156 4.265625,-4.390625 4.265625,-3.367188 4.09375,-2.34375 3.75,-1.3125 3.40625,-0.28125 2.894531,0.769531 2.21875,1.84375 H 1.125 c 0.601562,-1.042969 1.050781,-2.078125 1.34375,-3.109375 0.300781,-1.03125 0.453125,-2.070313 0.453125,-3.125 C 2.921875,-5.441406 2.769531,-6.476562 2.46875,-7.5 2.175781,-8.53125 1.726562,-9.570312 1.125,-10.625 Z m 0,0"
           id="path21" />
      </g>
      <g
         id="glyph-0-22">
        <path
           d="M 4,0 0.109375,-10.203125 h 1.4375 l 3.234375,8.59375 3.25,-8.59375 h 1.4375 L 5.578125,0 Z m 0,0"
           id="path22" />
      </g>
      <g
         id="glyph-0-23">
        <path
           d="m 2.53125,-1.15625 v 4.0625 H 1.265625 V -7.65625 H 2.53125 V -6.5 c 0.269531,-0.445312 0.601562,-0.78125 1,-1 0.40625,-0.226562 0.890625,-0.34375 1.453125,-0.34375 0.925781,0 1.679687,0.371094 2.265625,1.109375 0.582031,0.742187 0.875,1.710937 0.875,2.90625 0,1.210937 -0.292969,2.183594 -0.875,2.921875 -0.585938,0.742188 -1.339844,1.109375 -2.265625,1.109375 -0.5625,0 -1.046875,-0.109375 -1.453125,-0.328125 -0.398438,-0.226562 -0.730469,-0.570312 -1,-1.03125 z M 6.8125,-3.828125 c 0,-0.914063 -0.195312,-1.632813 -0.578125,-2.15625 -0.375,-0.53125 -0.898437,-0.796875 -1.5625,-0.796875 -0.667969,0 -1.195313,0.265625 -1.578125,0.796875 -0.375,0.523437 -0.5625,1.242187 -0.5625,2.15625 0,0.929687 0.1875,1.65625 0.5625,2.1875 0.382812,0.523437 0.910156,0.78125 1.578125,0.78125 0.664063,0 1.1875,-0.257813 1.5625,-0.78125 0.382813,-0.53125 0.578125,-1.257813 0.578125,-2.1875 z m 0,0"
           id="path23" />
      </g>
      <g
         id="glyph-0-24">
        <path
           d="m 6.359375,-3.921875 c 0,-0.90625 -0.1875,-1.609375 -0.5625,-2.109375 -0.375,-0.5 -0.902344,-0.75 -1.578125,-0.75 -0.679688,0 -1.203125,0.25 -1.578125,0.75 -0.375,0.5 -0.5625,1.203125 -0.5625,2.109375 0,0.90625 0.1875,1.617187 0.5625,2.125 0.375,0.5 0.898437,0.75 1.578125,0.75 0.675781,0 1.203125,-0.25 1.578125,-0.75 0.375,-0.507813 0.5625,-1.21875 0.5625,-2.125 z m 1.25,2.96875 c 0,1.300781 -0.292969,2.269531 -0.875,2.90625 C 6.160156,2.585938 5.28125,2.90625 4.09375,2.90625 3.644531,2.90625 3.222656,2.875 2.828125,2.8125 2.441406,2.75 2.066406,2.648438 1.703125,2.515625 V 1.28125 C 2.066406,1.488281 2.425781,1.640625 2.78125,1.734375 3.144531,1.828125 3.515625,1.875 3.890625,1.875 c 0.820313,0 1.4375,-0.21875 1.84375,-0.65625 0.414063,-0.429688 0.625,-1.074219 0.625,-1.9375 v -0.625 c -0.261719,0.449219 -0.59375,0.789062 -1,1.015625 C 4.953125,-0.109375 4.46875,0 3.90625,0 2.96875,0 2.207031,-0.351562 1.625,-1.0625 1.050781,-1.78125 0.765625,-2.734375 0.765625,-3.921875 c 0,-1.175781 0.285156,-2.125 0.859375,-2.84375 0.582031,-0.71875 1.34375,-1.078125 2.28125,-1.078125 0.5625,0 1.046875,0.117188 1.453125,0.34375 0.40625,0.21875 0.738281,0.554688 1,1 v -1.15625 h 1.25 z m 0,0"
           id="path24" />
      </g>
      <g
         id="glyph-0-25">
        <path
           d="m 2.078125,-3.828125 c 0,0.929687 0.1875,1.65625 0.5625,2.1875 0.382813,0.523437 0.910156,0.78125 1.578125,0.78125 0.65625,0 1.175781,-0.257813 1.5625,-0.78125 0.382812,-0.53125 0.578125,-1.257813 0.578125,-2.1875 0,-0.914063 -0.195313,-1.632813 -0.578125,-2.15625 C 5.394531,-6.515625 4.875,-6.78125 4.21875,-6.78125 c -0.667969,0 -1.195312,0.265625 -1.578125,0.796875 -0.375,0.523437 -0.5625,1.242187 -0.5625,2.15625 z m 4.28125,2.671875 c -0.261719,0.460938 -0.59375,0.804688 -1,1.03125 -0.40625,0.21875 -0.890625,0.328125 -1.453125,0.328125 -0.929688,0 -1.683594,-0.367187 -2.265625,-1.109375 -0.585937,-0.738281 -0.875,-1.710938 -0.875,-2.921875 0,-1.195313 0.289063,-2.164063 0.875,-2.90625 0.582031,-0.738281 1.335937,-1.109375 2.265625,-1.109375 0.5625,0 1.046875,0.117188 1.453125,0.34375 0.40625,0.21875 0.738281,0.554688 1,1 v -1.15625 h 1.25 v 10.5625 h -1.25 z m 0,0"
           id="path25" />
      </g>
      <g
         id="glyph-0-26">
        <path
           d="M 1.1875,-3.015625 V -7.65625 h 1.265625 v 4.59375 c 0,0.71875 0.140625,1.261719 0.421875,1.625 0.28125,0.367188 0.703125,0.546875 1.265625,0.546875 0.675781,0 1.210937,-0.210937 1.609375,-0.640625 0.394531,-0.4375 0.59375,-1.03125 0.59375,-1.78125 V -7.65625 H 7.609375 V 0 H 6.34375 v -1.171875 c -0.304688,0.460937 -0.65625,0.804687 -1.0625,1.03125 -0.40625,0.2265625 -0.875,0.34375 -1.40625,0.34375 -0.875,0 -1.542969,-0.2695312 -2,-0.8125 C 1.414062,-1.160156 1.1875,-1.960938 1.1875,-3.015625 Z M 4.359375,-7.84375 Z m 0,0"
           id="path26" />
      </g>
      <g
         id="glyph-0-27">
        <path
           d="m 1.640625,-1.734375 h 1.4375 V 0 h -1.4375 z m 0,-5.5 h 1.4375 V -5.5 h -1.4375 z m 0,0"
           id="path27" />
      </g>
      <g
         id="glyph-0-28">
        <path
           d="M 5.203125,-10.640625 V -9.59375 H 4 c -0.460938,0 -0.777344,0.09375 -0.953125,0.28125 -0.167969,0.179688 -0.25,0.507812 -0.25,0.984375 v 0.671875 h 2.0625 v 0.984375 h -2.0625 V 0 H 1.53125 V -6.671875 H 0.328125 V -7.65625 H 1.53125 V -8.1875 c 0,-0.851562 0.195312,-1.472656 0.59375,-1.859375 0.394531,-0.394531 1.019531,-0.59375 1.875,-0.59375 z m 0,0"
           id="path28" />
      </g>
      <g
         id="glyph-0-29">
        <path
           d="M 1.265625,-10.640625 H 2.53125 v 6.28125 L 6.296875,-7.65625 h 1.59375 L 3.828125,-4.078125 8.0625,0 H 6.421875 L 2.53125,-3.734375 V 0 H 1.265625 Z m 0,0"
           id="path29" />
      </g>
      <g
         id="glyph-0-30">
        <path
           d="m 3.5625,-10.203125 h 1.15625 l -3.5625,11.5 H 0 Z m 0,0"
           id="path30" />
      </g>
      <g
         id="glyph-0-31">
        <path
           d="M 1.375,-10.203125 H 2.75 v 9.484375 c 0,1.238281 -0.234375,2.132812 -0.703125,2.6875 -0.460937,0.550781 -1.210937,0.828125 -2.25,0.828125 H -0.71875 v -1.15625 h 0.421875 C 0.316406,1.640625 0.75,1.46875 1,1.125 1.25,0.78125 1.375,0.164062 1.375,-0.71875 Z m 0,0"
           id="path31" />
      </g>
      <g
         id="glyph-0-32">
        <path
           d="m 1.375,-10.203125 h 6.453125 v 1.15625 H 2.75 v 3.03125 h 4.859375 v 1.15625 H 2.75 V -1.15625 H 7.953125 V 0 H 1.375 Z m 0,0"
           id="path32" />
      </g>
      <g
         id="glyph-0-33">
        <path
           d="m 7.5,-9.875 v 1.34375 c -0.53125,-0.25 -1.03125,-0.429688 -1.5,-0.546875 -0.460938,-0.125 -0.90625,-0.1875 -1.34375,-0.1875 -0.75,0 -1.328125,0.148437 -1.734375,0.4375 C 2.515625,-8.535156 2.3125,-8.125 2.3125,-7.59375 c 0,0.460938 0.132812,0.804688 0.40625,1.03125 0.269531,0.230469 0.785156,0.414062 1.546875,0.546875 L 5.09375,-5.84375 c 1.03125,0.199219 1.789062,0.546875 2.28125,1.046875 0.488281,0.492187 0.734375,1.152344 0.734375,1.984375 0,0.992188 -0.335937,1.742188 -1,2.25 -0.65625,0.5117188 -1.625,0.765625 -2.90625,0.765625 C 3.710938,0.203125 3.195312,0.144531 2.65625,0.03125 2.113281,-0.0703125 1.550781,-0.234375 0.96875,-0.453125 V -1.875 c 0.5625,0.3125 1.109375,0.554688 1.640625,0.71875 0.539063,0.15625 1.070313,0.234375 1.59375,0.234375 0.78125,0 1.382813,-0.15625 1.8125,-0.46875 0.4375,-0.3125 0.65625,-0.753906 0.65625,-1.328125 0,-0.5 -0.15625,-0.890625 -0.46875,-1.171875 C 5.898438,-4.171875 5.394531,-4.382812 4.6875,-4.53125 L 3.84375,-4.6875 C 2.8125,-4.894531 2.066406,-5.21875 1.609375,-5.65625 c -0.460937,-0.4375 -0.6875,-1.046875 -0.6875,-1.828125 0,-0.894531 0.316406,-1.601563 0.953125,-2.125 0.632812,-0.519531 1.507812,-0.78125 2.625,-0.78125 0.476562,0 0.96875,0.04687 1.46875,0.140625 0.5,0.08594 1.007812,0.210938 1.53125,0.375 z m 0,0"
           id="path33" />
      </g>
      <g
         id="glyph-0-34">
        <path
           d="m 4.78125,-8.84375 -1.875,5.078125 H 6.671875 Z M 4,-10.203125 H 5.578125 L 9.46875,0 H 8.03125 L 7.09375,-2.625 H 2.5 L 1.5625,0 H 0.109375 Z m 0,0"
           id="path34" />
      </g>
      <g
         id="glyph-0-35">
        <path
           d="m 1.375,-10.203125 h 5.859375 v 1.15625 H 2.75 V -6.03125 H 6.796875 V -4.875 H 2.75 V 0 H 1.375 Z m 0,0"
           id="path35" />
      </g>
      <g
         id="glyph-0-36">
        <path
           d="m 6.21875,-4.78125 c 0.289062,0.09375 0.578125,0.308594 0.859375,0.640625 0.28125,0.324219 0.5625,0.773437 0.84375,1.34375 L 9.328125,0 H 7.84375 L 6.53125,-2.625 C 6.195312,-3.300781 5.867188,-3.75 5.546875,-3.96875 5.234375,-4.195312 4.804688,-4.3125 4.265625,-4.3125 H 2.75 V 0 H 1.375 v -10.203125 h 3.109375 c 1.164063,0 2.035156,0.246094 2.609375,0.734375 0.582031,0.480469 0.875,1.214844 0.875,2.203125 0,0.648437 -0.152344,1.183594 -0.453125,1.609375 -0.304687,0.417969 -0.734375,0.710938 -1.296875,0.875 z M 2.75,-9.078125 v 3.625 h 1.734375 c 0.664063,0 1.171875,-0.148437 1.515625,-0.453125 0.34375,-0.3125 0.515625,-0.765625 0.515625,-1.359375 0,-0.59375 -0.171875,-1.039063 -0.515625,-1.34375 -0.34375,-0.3125 -0.851562,-0.46875 -1.515625,-0.46875 z m 0,0"
           id="path36" />
      </g>
      <g
         id="glyph-1-0">
        <path
           d="M 7.15625,-7.421875 V -5.5625 C 6.632812,-5.78125 6.128906,-5.941406 5.640625,-6.046875 5.148438,-6.160156 4.691406,-6.21875 4.265625,-6.21875 c -0.46875,0 -0.820313,0.0625 -1.046875,0.1875 C 3,-5.914062 2.890625,-5.738281 2.890625,-5.5 c 0,0.199219 0.082031,0.351562 0.25,0.453125 0.164063,0.105469 0.472656,0.183594 0.921875,0.234375 l 0.421875,0.046875 c 1.257813,0.167969 2.101563,0.433594 2.53125,0.796875 0.4375,0.367188 0.65625,0.9375 0.65625,1.71875 0,0.8125 -0.304687,1.429688 -0.90625,1.84375 C 6.160156,0 5.265625,0.203125 4.078125,0.203125 3.566406,0.203125 3.039062,0.160156 2.5,0.078125 1.96875,-0.00390625 1.414062,-0.125 0.84375,-0.28125 v -1.859375 c 0.488281,0.242187 0.988281,0.421875 1.5,0.546875 0.507812,0.117188 1.03125,0.171875 1.5625,0.171875 0.476562,0 0.835938,-0.066406 1.078125,-0.203125 0.238281,-0.132812 0.359375,-0.332031 0.359375,-0.59375 0,-0.21875 -0.085938,-0.378906 -0.25,-0.484375 -0.167969,-0.101563 -0.496094,-0.1875 -0.984375,-0.25 l -0.4375,-0.0625 C 2.578125,-3.148438 1.8125,-3.398438 1.375,-3.765625 c -0.4375,-0.375 -0.65625,-0.9375 -0.65625,-1.6875 0,-0.8125 0.273438,-1.410156 0.828125,-1.796875 0.5625,-0.394531 1.414063,-0.59375 2.5625,-0.59375 0.457031,0 0.929687,0.039062 1.421875,0.109375 0.5,0.0625 1.039062,0.167969 1.625,0.3125 z m 0,0"
           id="path37" />
      </g>
      <g
         id="glyph-1-1">
        <path
           d="m 6.390625,-6.53125 v -4.109375 H 8.84375 V 0 H 6.390625 v -1.109375 c -0.34375,0.449219 -0.71875,0.78125 -1.125,1 -0.40625,0.2070312 -0.875,0.3125 -1.40625,0.3125 -0.9375,0 -1.714844,-0.375 -2.328125,-1.125 -0.605469,-0.75 -0.90625,-1.71875 -0.90625,-2.90625 0,-1.175781 0.300781,-2.140625 0.90625,-2.890625 0.613281,-0.75 1.390625,-1.125 2.328125,-1.125 0.53125,0 1,0.109375 1.40625,0.328125 0.40625,0.210937 0.78125,0.539063 1.125,0.984375 z m -1.625,4.953125 c 0.53125,0 0.929687,-0.191406 1.203125,-0.578125 C 6.25,-2.539062 6.390625,-3.097656 6.390625,-3.828125 6.390625,-4.554688 6.25,-5.109375 5.96875,-5.484375 5.695312,-5.867188 5.296875,-6.0625 4.765625,-6.0625 c -0.511719,0 -0.90625,0.195312 -1.1875,0.578125 -0.273437,0.375 -0.40625,0.929687 -0.40625,1.65625 0,0.730469 0.132813,1.289063 0.40625,1.671875 0.28125,0.386719 0.675781,0.578125 1.1875,0.578125 z m 0,0"
           id="path38" />
      </g>
    </g>
  </defs>
  <path
     fill="none"
     stroke-width="2"
     stroke-linecap="butt"
     stroke-linejoin="round"
     stroke="#000000"
     stroke-opacity="1"
     stroke-miterlimit="10"
     d="M 430.37225,8.7797468 H 536.50897 V 66.779747 H 430.37225 Z m 0,0 z m 0,0"
     id="path39" />
  <g
     fill="#000000"
     fill-opacity="1"
     id="g49"
     transform="translate(-43.604317,-200.04056)">
    <use
       xlink:href="#glyph-0-0"
       x="485.54492"
       y="233.82031"
       id="use39" />
    <use
       xlink:href="#glyph-0-1"
       x="497.54492"
       y="233.82031"
       id="use40" />
    <use
       xlink:href="#glyph-0-2"
       x="506.54492"
       y="233.82031"
       id="use41" />
    <use
       xlink:href="#glyph-0-3"
       x="510.54492"
       y="233.82031"
       id="use42" />
    <use
       xlink:href="#glyph-0-4"
       x="519.54492"
       y="233.82031"
       id="use43" />
    <use
       xlink:href="#glyph-0-5"
       x="523.54492"
       y="233.82031"
       id="use44" />
    <use
       xlink:href="#glyph-0-2"
       x="537.54492"
       y="233.82031"
       id="use45" />
    <use
       xlink:href="#glyph-0-6"
       x="541.54492"
       y="233.82031"
       id="use46" />
    <use
       xlink:href="#glyph-0-7"
       x="549.54492"
       y="233.82031"
       id="use47" />
    <use
       xlink:href="#glyph-0-8"
       x="554.54492"
       y="233.82031"
       id="use48" />
    <use
       xlink:href="#glyph-0-9"
       x="563.54492"
       y="233.82031"
       id="use49" />
  </g>
  <g
     fill="#000000"
     fill-opacity="1"
     id="g59"
     transform="translate(-43.604317,-200.04056)">
    <use
       xlink:href="#glyph-0-6"
       x="493.04492"
       y="250.82031"
       id="use50" />
    <use
       xlink:href="#glyph-0-8"
       x="501.04492"
       y="250.82031"
       id="use51" />
    <use
       xlink:href="#glyph-0-3"
       x="510.04492"
       y="250.82031"
       id="use52" />
    <use
       xlink:href="#glyph-0-10"
       x="519.04492"
       y="250.82031"
       id="use53" />
    <use
       xlink:href="#glyph-0-7"
       x="524.04492"
       y="250.82031"
       id="use54" />
    <use
       xlink:href="#glyph-0-8"
       x="529.04492"
       y="250.82031"
       id="use55" />
    <use
       xlink:href="#glyph-0-11"
       x="538.04492"
       y="250.82031"
       id="use56" />
    <use
       xlink:href="#glyph-0-11"
       x="542.04492"
       y="250.82031"
       id="use57" />
    <use
       xlink:href="#glyph-0-12"
       x="546.04492"
       y="250.82031"
       id="use58" />
    <use
       xlink:href="#glyph-0-7"
       x="555.04492"
       y="250.82031"
       id="use59" />
  </g>
  <path
     fill="none"
     stroke-width="2"
     stroke-linecap="butt"
     stroke-linejoin="round"
     stroke="#000000"
     stroke-opacity="1"
     stroke-dasharray="7, 5"
     stroke-miterlimit="10"
     d="M 483.43865,66.779747 V 545.92428"
     id="path59" />
  <path
     fill-rule="nonzero"
     fill="#ffffff"
     fill-opacity="1"
     stroke-width="2"
     stroke-linecap="butt"
     stroke-linejoin="round"
     stroke="#000000"
     stroke-opacity="1"
     stroke-miterlimit="10"
     d="m 477.43865,99.541464 h 12 v 57.484376 h -12 z m 0,0 z m 0,0"
     id="path60" />
  <path
     fill-rule="nonzero"
     fill="#ffffff"
     fill-opacity="1"
     stroke-width="2"
     stroke-linecap="butt"
     stroke-linejoin="round"
     stroke="#000000"
     stroke-opacity="1"
     stroke-miterlimit="10"
     d="m 477.43866,261.46725 h 12 v 263.86719 h -12 z m 0,0 z m 0,0"
     id="path61" />
  <path
     fill="none"
     stroke-width="2"
     stroke-linecap="butt"
     stroke-linejoin="round"
     stroke="#000000"
     stroke-opacity="1"
     stroke-miterlimit="10"
     d="m 170.49725,8.7797468 h 100 V 66.779747 h -100 z m 0,0 z m 0,0"
     id="path62" />
  <g
     fill="#000000"
     fill-opacity="1"
     id="g71"
     transform="translate(-43.604317,-200.04056)">
    <use
       xlink:href="#glyph-0-13"
       x="220.10156"
       y="233.82031"
       id="use62" />
    <use
       xlink:href="#glyph-0-1"
       x="231.10156"
       y="233.82031"
       id="use63" />
    <use
       xlink:href="#glyph-0-5"
       x="240.10156"
       y="233.82031"
       id="use64" />
    <use
       xlink:href="#glyph-0-12"
       x="254.10156"
       y="233.82031"
       id="use65" />
    <use
       xlink:href="#glyph-0-4"
       x="263.10156"
       y="233.82031"
       id="use66" />
    <use
       xlink:href="#glyph-0-14"
       x="267.10156"
       y="233.82031"
       id="use67" />
    <use
       xlink:href="#glyph-0-8"
       x="276.10156"
       y="233.82031"
       id="use68" />
    <use
       xlink:href="#glyph-0-1"
       x="285.10156"
       y="233.82031"
       id="use69" />
    <use
       xlink:href="#glyph-0-7"
       x="294.10156"
       y="233.82031"
       id="use70" />
    <use
       xlink:href="#glyph-0-15"
       x="300.10156"
       y="233.82031"
       id="use71" />
  </g>
  <g
     fill="#000000"
     fill-opacity="1"
     id="g82"
     transform="translate(-43.604317,-200.04056)">
    <use
       xlink:href="#glyph-0-16"
       x="228.10156"
       y="250.82031"
       id="use72" />
    <use
       xlink:href="#glyph-0-2"
       x="236.10156"
       y="250.82031"
       id="use73" />
    <use
       xlink:href="#glyph-0-17"
       x="240.10156"
       y="250.82031"
       id="use74" />
    <use
       xlink:href="#glyph-0-2"
       x="247.10156"
       y="250.82031"
       id="use75" />
    <use
       xlink:href="#glyph-0-8"
       x="251.10156"
       y="250.82031"
       id="use76" />
    <use
       xlink:href="#glyph-0-3"
       x="260.10156"
       y="250.82031"
       id="use77" />
    <use
       xlink:href="#glyph-0-4"
       x="269.10156"
       y="250.82031"
       id="use78" />
    <use
       xlink:href="#glyph-0-18"
       x="273.10156"
       y="250.82031"
       id="use79" />
    <use
       xlink:href="#glyph-0-19"
       x="278.10156"
       y="250.82031"
       id="use80" />
    <use
       xlink:href="#glyph-0-20"
       x="286.10156"
       y="250.82031"
       id="use81" />
    <use
       xlink:href="#glyph-0-21"
       x="296.10156"
       y="250.82031"
       id="use82" />
  </g>
  <path
     fill="none"
     stroke-width="2"
     stroke-linecap="butt"
     stroke-linejoin="round"
     stroke="#000000"
     stroke-opacity="1"
     stroke-dasharray="7, 5"
     stroke-miterlimit="10"
     d="M 220.49725,66.779747 V 545.13522"
     id="path82" />
  <path
     fill-rule="nonzero"
     fill="#ffffff"
     fill-opacity="1"
     stroke-width="2"
     stroke-linecap="butt"
     stroke-linejoin="round"
     stroke="#000000"
     stroke-opacity="1"
     stroke-miterlimit="10"
     d="m 214.49725,95.236777 h 12 v 62.519533 h -12 z m 0,0 z m 0,0"
     id="path83" />
  <path
     fill="none"
     stroke-width="2"
     stroke-linecap="butt"
     stroke-linejoin="round"
     stroke="#000000"
     stroke-opacity="1"
     stroke-miterlimit="10"
     d="M 973.32931,8.7797468 H 1096.4816 V 66.779747 H 973.32931 Z m 0,0 z m 0,0"
     id="path84" />
  <g
     fill="#000000"
     fill-opacity="1"
     id="g98"
     transform="translate(-43.604317,-200.04056)">
    <use
       xlink:href="#glyph-0-19"
       x="1023.0098"
       y="233.82031"
       id="use84" />
    <use
       xlink:href="#glyph-0-22"
       x="1031.0098"
       y="233.82031"
       id="use85" />
    <use
       xlink:href="#glyph-0-4"
       x="1041.0098"
       y="233.82031"
       id="use86" />
    <use
       xlink:href="#glyph-0-23"
       x="1045.0098"
       y="233.82031"
       id="use87" />
    <use
       xlink:href="#glyph-0-1"
       x="1054.0098"
       y="233.82031"
       id="use88" />
    <use
       xlink:href="#glyph-0-3"
       x="1063.0098"
       y="233.82031"
       id="use89" />
    <use
       xlink:href="#glyph-0-12"
       x="1072.0098"
       y="233.82031"
       id="use90" />
    <use
       xlink:href="#glyph-0-11"
       x="1081.0098"
       y="233.82031"
       id="use91" />
    <use
       xlink:href="#glyph-0-4"
       x="1085.0098"
       y="233.82031"
       id="use92" />
    <use
       xlink:href="#glyph-0-5"
       x="1089.0098"
       y="233.82031"
       id="use93" />
    <use
       xlink:href="#glyph-0-2"
       x="1103.0098"
       y="233.82031"
       id="use94" />
    <use
       xlink:href="#glyph-0-6"
       x="1107.0098"
       y="233.82031"
       id="use95" />
    <use
       xlink:href="#glyph-0-7"
       x="1115.0098"
       y="233.82031"
       id="use96" />
    <use
       xlink:href="#glyph-0-8"
       x="1120.0098"
       y="233.82031"
       id="use97" />
    <use
       xlink:href="#glyph-0-9"
       x="1129.0098"
       y="233.82031"
       id="use98" />
  </g>
  <g
     fill="#000000"
     fill-opacity="1"
     id="g108"
     transform="translate(-43.604317,-200.04056)">
    <use
       xlink:href="#glyph-0-6"
       x="1044.5098"
       y="250.82031"
       id="use99" />
    <use
       xlink:href="#glyph-0-8"
       x="1052.5098"
       y="250.82031"
       id="use100" />
    <use
       xlink:href="#glyph-0-3"
       x="1061.5098"
       y="250.82031"
       id="use101" />
    <use
       xlink:href="#glyph-0-10"
       x="1070.5098"
       y="250.82031"
       id="use102" />
    <use
       xlink:href="#glyph-0-7"
       x="1075.5098"
       y="250.82031"
       id="use103" />
    <use
       xlink:href="#glyph-0-8"
       x="1080.5098"
       y="250.82031"
       id="use104" />
    <use
       xlink:href="#glyph-0-11"
       x="1089.5098"
       y="250.82031"
       id="use105" />
    <use
       xlink:href="#glyph-0-11"
       x="1093.5098"
       y="250.82031"
       id="use106" />
    <use
       xlink:href="#glyph-0-12"
       x="1097.5098"
       y="250.82031"
       id="use107" />
    <use
       xlink:href="#glyph-0-7"
       x="1106.5098"
       y="250.82031"
       id="use108" />
  </g>
  <path
     fill="none"
     stroke-width="2"
     stroke-linecap="butt"
     stroke-linejoin="round"
     stroke="#000000"
     stroke-opacity="1"
     stroke-dasharray="7, 5"
     stroke-miterlimit="10"
     d="M 1034.9035,66.779747 V 542.08444"
     id="path108" />
  <path
     fill-rule="nonzero"
     fill="#ffffff"
     fill-opacity="1"
     stroke-width="2"
     stroke-linecap="butt"
     stroke-linejoin="round"
     stroke="#000000"
     stroke-opacity="1"
     stroke-miterlimit="10"
     d="m 1028.9035,272.38912 h 12 v 57.60547 h -12 z m 0,0 z m 0,0"
     id="path109" />
  <path
     fill-rule="nonzero"
     fill="#ffffff"
     fill-opacity="1"
     stroke-width="2"
     stroke-linecap="butt"
     stroke-linejoin="round"
     stroke="#000000"
     stroke-opacity="1"
     stroke-miterlimit="10"
     d="m 1028.9035,360.44772 h 12 v 59.375 h -12 z m 0,0 z m 0,0"
     id="path110" />
  <path
     fill-rule="nonzero"
     fill="#ffffff"
     fill-opacity="1"
     stroke-width="2"
     stroke-linecap="butt"
     stroke-linejoin="round"
     stroke="#000000"
     stroke-opacity="1"
     stroke-miterlimit="10"
     d="m 1028.9034,453.48678 h 12 v 52.80078 h -12 z m 0,0 z m 0,0"
     id="path111" />
  <path
     fill="none"
     stroke-width="2"
     stroke-linecap="butt"
     stroke-linejoin="round"
     stroke="#000000"
     stroke-opacity="1"
     stroke-miterlimit="10"
     d="M 712.13788,8.7797468 H 823.38397 V 66.779747 H 712.13788 Z m 0,0 z m 0,0"
     id="path112" />
  <g
     fill="#000000"
     fill-opacity="1"
     id="g119"
     transform="translate(-43.604317,-200.04056)">
    <use
       xlink:href="#glyph-0-19"
       x="780.36523"
       y="233.82031"
       id="use112" />
    <use
       xlink:href="#glyph-0-22"
       x="788.36523"
       y="233.82031"
       id="use113" />
    <use
       xlink:href="#glyph-0-4"
       x="798.36523"
       y="233.82031"
       id="use114" />
    <use
       xlink:href="#glyph-0-23"
       x="802.36523"
       y="233.82031"
       id="use115" />
    <use
       xlink:href="#glyph-0-1"
       x="811.36523"
       y="233.82031"
       id="use116" />
    <use
       xlink:href="#glyph-0-3"
       x="820.36523"
       y="233.82031"
       id="use117" />
    <use
       xlink:href="#glyph-0-12"
       x="829.36523"
       y="233.82031"
       id="use118" />
    <use
       xlink:href="#glyph-0-11"
       x="838.36523"
       y="233.82031"
       id="use119" />
  </g>
  <g
     fill="#000000"
     fill-opacity="1"
     id="g131"
     transform="translate(-43.604317,-200.04056)">
    <use
       xlink:href="#glyph-0-5"
       x="762.86523"
       y="250.82031"
       id="use120" />
    <use
       xlink:href="#glyph-0-1"
       x="776.86523"
       y="250.82031"
       id="use121" />
    <use
       xlink:href="#glyph-0-3"
       x="785.86523"
       y="250.82031"
       id="use122" />
    <use
       xlink:href="#glyph-0-1"
       x="794.86523"
       y="250.82031"
       id="use123" />
    <use
       xlink:href="#glyph-0-24"
       x="803.86523"
       y="250.82031"
       id="use124" />
    <use
       xlink:href="#glyph-0-12"
       x="812.86523"
       y="250.82031"
       id="use125" />
    <use
       xlink:href="#glyph-0-7"
       x="821.86523"
       y="250.82031"
       id="use126" />
    <use
       xlink:href="#glyph-0-4"
       x="827.86523"
       y="250.82031"
       id="use127" />
    <use
       xlink:href="#glyph-0-18"
       x="831.86523"
       y="250.82031"
       id="use128" />
    <use
       xlink:href="#glyph-0-19"
       x="836.86523"
       y="250.82031"
       id="use129" />
    <use
       xlink:href="#glyph-0-20"
       x="844.86523"
       y="250.82031"
       id="use130" />
    <use
       xlink:href="#glyph-0-21"
       x="854.86523"
       y="250.82031"
       id="use131" />
  </g>
  <path
     fill="none"
     stroke-width="2"
     stroke-linecap="butt"
     stroke-linejoin="round"
     stroke="#000000"
     stroke-opacity="1"
     stroke-dasharray="7, 5"
     stroke-miterlimit="10"
     d="M 767.76288,66.779747 V 546.7485"
     id="path131" />
  <path
     fill-rule="nonzero"
     fill="#ffffff"
     fill-opacity="1"
     stroke-width="2"
     stroke-linecap="butt"
     stroke-linejoin="round"
     stroke="#000000"
     stroke-opacity="1"
     stroke-miterlimit="10"
     d="m 761.76288,264.38913 h 12 v 66.53906 h -12 z m 0,0 z m 0,0"
     id="path132" />
  <path
     fill-rule="nonzero"
     fill="#ffffff"
     fill-opacity="1"
     stroke-width="2"
     stroke-linecap="butt"
     stroke-linejoin="round"
     stroke="#000000"
     stroke-opacity="1"
     stroke-miterlimit="10"
     d="m 761.76288,452.74069 h 12 v 71.47265 h -12 z m 0,0 z m 0,0"
     id="path133" />
  <path
     fill-rule="nonzero"
     fill="#ffffff"
     fill-opacity="1"
     stroke-width="2"
     stroke-linecap="butt"
     stroke-linejoin="round"
     stroke="#000000"
     stroke-opacity="1"
     stroke-miterlimit="10"
     d="m 761.76287,357.76413 h 12 v 67.01171 h -12 z m 0,0 z m 0,0"
     id="path134" />
  <path
     fill="none"
     stroke-width="2"
     stroke-linecap="butt"
     stroke-linejoin="round"
     stroke="#000000"
     stroke-opacity="1"
     stroke-miterlimit="10"
     d="M 483.43866,106.20162 H 220.49725"
     id="path135" />
  <path
     fill-rule="nonzero"
     fill="#000000"
     fill-opacity="1"
     stroke-width="2"
     stroke-linecap="butt"
     stroke-linejoin="round"
     stroke="#000000"
     stroke-opacity="1"
     stroke-miterlimit="10"
     d="m 235.49725,112.20162 -15,-6 15,-6 z m 0,0"
     id="path136" />
  <g
     fill="#000000"
     fill-opacity="1"
     id="g154"
     transform="translate(-43.604317,-200.04056)">
    <use
       xlink:href="#glyph-0-7"
       x="327.07422"
       y="322.24219"
       id="use136" />
    <use
       xlink:href="#glyph-0-12"
       x="332.07422"
       y="322.24219"
       id="use137" />
    <use
       xlink:href="#glyph-0-25"
       x="341.07422"
       y="322.24219"
       id="use138" />
    <use
       xlink:href="#glyph-0-26"
       x="350.07422"
       y="322.24219"
       id="use139" />
    <use
       xlink:href="#glyph-0-12"
       x="359.07422"
       y="322.24219"
       id="use140" />
    <use
       xlink:href="#glyph-0-17"
       x="368.07422"
       y="322.24219"
       id="use141" />
    <use
       xlink:href="#glyph-0-10"
       x="375.07422"
       y="322.24219"
       id="use142" />
    <use
       xlink:href="#glyph-0-27"
       x="380.07422"
       y="322.24219"
       id="use143" />
    <use
       xlink:href="#glyph-0-4"
       x="385.07422"
       y="322.24219"
       id="use144" />
    <use
       xlink:href="#glyph-0-7"
       x="389.07422"
       y="322.24219"
       id="use145" />
    <use
       xlink:href="#glyph-0-8"
       x="394.07422"
       y="322.24219"
       id="use146" />
    <use
       xlink:href="#glyph-0-14"
       x="403.07422"
       y="322.24219"
       id="use147" />
    <use
       xlink:href="#glyph-0-8"
       x="412.07422"
       y="322.24219"
       id="use148" />
    <use
       xlink:href="#glyph-0-10"
       x="421.07422"
       y="322.24219"
       id="use149" />
    <use
       xlink:href="#glyph-0-4"
       x="426.07422"
       y="322.24219"
       id="use150" />
    <use
       xlink:href="#glyph-0-23"
       x="430.07422"
       y="322.24219"
       id="use151" />
    <use
       xlink:href="#glyph-0-8"
       x="439.07422"
       y="322.24219"
       id="use152" />
    <use
       xlink:href="#glyph-0-17"
       x="448.07422"
       y="322.24219"
       id="use153" />
    <use
       xlink:href="#glyph-0-12"
       x="455.07422"
       y="322.24219"
       id="use154" />
  </g>
  <path
     fill="none"
     stroke-width="2"
     stroke-linecap="butt"
     stroke-linejoin="round"
     stroke="#000000"
     stroke-opacity="1"
     stroke-miterlimit="10"
     d="m 220.49726,149.3149 h 262.9414"
     id="path154" />
  <path
     fill-rule="nonzero"
     fill="#000000"
     fill-opacity="1"
     stroke-width="2"
     stroke-linecap="butt"
     stroke-linejoin="round"
     stroke="#000000"
     stroke-opacity="1"
     stroke-miterlimit="10"
     d="m 468.43866,143.3149 15,6 -15,6 z m 0,0"
     id="path155" />
  <g
     fill="#000000"
     fill-opacity="1"
     id="g173"
     transform="translate(-43.604317,-200.04056)">
    <use
       xlink:href="#glyph-0-7"
       x="330.57422"
       y="365.35547"
       id="use155" />
    <use
       xlink:href="#glyph-0-12"
       x="335.57422"
       y="365.35547"
       id="use156" />
    <use
       xlink:href="#glyph-0-17"
       x="344.57422"
       y="365.35547"
       id="use157" />
    <use
       xlink:href="#glyph-0-26"
       x="351.57422"
       y="365.35547"
       id="use158" />
    <use
       xlink:href="#glyph-0-11"
       x="360.57422"
       y="365.35547"
       id="use159" />
    <use
       xlink:href="#glyph-0-10"
       x="364.57422"
       y="365.35547"
       id="use160" />
    <use
       xlink:href="#glyph-0-27"
       x="369.57422"
       y="365.35547"
       id="use161" />
    <use
       xlink:href="#glyph-0-4"
       x="374.57422"
       y="365.35547"
       id="use162" />
    <use
       xlink:href="#glyph-0-7"
       x="378.57422"
       y="365.35547"
       id="use163" />
    <use
       xlink:href="#glyph-0-8"
       x="383.57422"
       y="365.35547"
       id="use164" />
    <use
       xlink:href="#glyph-0-14"
       x="392.57422"
       y="365.35547"
       id="use165" />
    <use
       xlink:href="#glyph-0-8"
       x="401.57422"
       y="365.35547"
       id="use166" />
    <use
       xlink:href="#glyph-0-10"
       x="410.57422"
       y="365.35547"
       id="use167" />
    <use
       xlink:href="#glyph-0-17"
       x="415.57422"
       y="365.35547"
       id="use168" />
    <use
       xlink:href="#glyph-0-4"
       x="422.57422"
       y="365.35547"
       id="use169" />
    <use
       xlink:href="#glyph-0-23"
       x="426.57422"
       y="365.35547"
       id="use170" />
    <use
       xlink:href="#glyph-0-8"
       x="435.57422"
       y="365.35547"
       id="use171" />
    <use
       xlink:href="#glyph-0-17"
       x="444.57422"
       y="365.35547"
       id="use172" />
    <use
       xlink:href="#glyph-0-12"
       x="451.57422"
       y="365.35547"
       id="use173" />
  </g>
  <path
     fill="none"
     stroke-width="2"
     stroke-linecap="butt"
     stroke-linejoin="round"
     stroke="#000000"
     stroke-opacity="1"
     stroke-miterlimit="10"
     d="M 483.43866,271.94772 H 767.76288"
     id="path173" />
  <path
     fill-rule="nonzero"
     fill="#000000"
     fill-opacity="1"
     stroke-width="2"
     stroke-linecap="butt"
     stroke-linejoin="round"
     stroke="#000000"
     stroke-opacity="1"
     stroke-miterlimit="10"
     d="m 752.76288,265.94772 15,6 -15,6 z m 0,0"
     id="path174" />
  <g
     fill="#000000"
     fill-opacity="1"
     id="g200"
     transform="translate(-43.604317,-200.04056)">
    <use
       xlink:href="#glyph-0-7"
       x="572.70312"
       y="487.98828"
       id="use174" />
    <use
       xlink:href="#glyph-0-12"
       x="577.70312"
       y="487.98828"
       id="use175" />
    <use
       xlink:href="#glyph-0-25"
       x="586.70312"
       y="487.98828"
       id="use176" />
    <use
       xlink:href="#glyph-0-26"
       x="595.70312"
       y="487.98828"
       id="use177" />
    <use
       xlink:href="#glyph-0-12"
       x="604.70312"
       y="487.98828"
       id="use178" />
    <use
       xlink:href="#glyph-0-17"
       x="613.70312"
       y="487.98828"
       id="use179" />
    <use
       xlink:href="#glyph-0-10"
       x="620.70312"
       y="487.98828"
       id="use180" />
    <use
       xlink:href="#glyph-0-27"
       x="625.70312"
       y="487.98828"
       id="use181" />
    <use
       xlink:href="#glyph-0-4"
       x="630.70312"
       y="487.98828"
       id="use182" />
    <use
       xlink:href="#glyph-0-8"
       x="634.70312"
       y="487.98828"
       id="use183" />
    <use
       xlink:href="#glyph-0-7"
       x="643.70312"
       y="487.98828"
       id="use184" />
    <use
       xlink:href="#glyph-0-2"
       x="649.70312"
       y="487.98828"
       id="use185" />
    <use
       xlink:href="#glyph-0-12"
       x="653.70312"
       y="487.98828"
       id="use186" />
    <use
       xlink:href="#glyph-0-3"
       x="662.70312"
       y="487.98828"
       id="use187" />
    <use
       xlink:href="#glyph-0-10"
       x="671.70312"
       y="487.98828"
       id="use188" />
    <use
       xlink:href="#glyph-0-1"
       x="676.70312"
       y="487.98828"
       id="use189" />
    <use
       xlink:href="#glyph-0-10"
       x="685.70312"
       y="487.98828"
       id="use190" />
    <use
       xlink:href="#glyph-0-12"
       x="690.70312"
       y="487.98828"
       id="use191" />
    <use
       xlink:href="#glyph-0-4"
       x="699.70312"
       y="487.98828"
       id="use192" />
    <use
       xlink:href="#glyph-0-19"
       x="703.70312"
       y="487.98828"
       id="use193" />
    <use
       xlink:href="#glyph-0-22"
       x="711.70312"
       y="487.98828"
       id="use194" />
    <use
       xlink:href="#glyph-0-4"
       x="721.70312"
       y="487.98828"
       id="use195" />
    <use
       xlink:href="#glyph-0-23"
       x="725.70312"
       y="487.98828"
       id="use196" />
    <use
       xlink:href="#glyph-0-1"
       x="734.70312"
       y="487.98828"
       id="use197" />
    <use
       xlink:href="#glyph-0-3"
       x="743.70312"
       y="487.98828"
       id="use198" />
    <use
       xlink:href="#glyph-0-12"
       x="752.70312"
       y="487.98828"
       id="use199" />
    <use
       xlink:href="#glyph-0-11"
       x="761.70312"
       y="487.98828"
       id="use200" />
  </g>
  <path
     fill="none"
     stroke-width="2"
     stroke-linecap="butt"
     stroke-linejoin="round"
     stroke="#000000"
     stroke-opacity="1"
     stroke-miterlimit="10"
     d="M 767.76287,281.52584 H 1034.9035"
     id="path200" />
  <path
     fill-rule="nonzero"
     fill="#000000"
     fill-opacity="1"
     stroke-width="2"
     stroke-linecap="butt"
     stroke-linejoin="round"
     stroke="#000000"
     stroke-opacity="1"
     stroke-miterlimit="10"
     d="m 1019.9035,275.52584 15,6 -15,6 z m 0,0"
     id="path201" />
  <g
     fill="#000000"
     fill-opacity="1"
     id="g223"
     transform="translate(-43.604317,-200.04056)">
    <use
       xlink:href="#glyph-0-7"
       x="865.9375"
       y="497.56641"
       id="use201" />
    <use
       xlink:href="#glyph-0-12"
       x="870.9375"
       y="497.56641"
       id="use202" />
    <use
       xlink:href="#glyph-0-25"
       x="879.9375"
       y="497.56641"
       id="use203" />
    <use
       xlink:href="#glyph-0-26"
       x="888.9375"
       y="497.56641"
       id="use204" />
    <use
       xlink:href="#glyph-0-12"
       x="897.9375"
       y="497.56641"
       id="use205" />
    <use
       xlink:href="#glyph-0-17"
       x="906.9375"
       y="497.56641"
       id="use206" />
    <use
       xlink:href="#glyph-0-10"
       x="913.9375"
       y="497.56641"
       id="use207" />
    <use
       xlink:href="#glyph-0-27"
       x="918.9375"
       y="497.56641"
       id="use208" />
    <use
       xlink:href="#glyph-0-4"
       x="923.9375"
       y="497.56641"
       id="use209" />
    <use
       xlink:href="#glyph-0-17"
       x="927.9375"
       y="497.56641"
       id="use210" />
    <use
       xlink:href="#glyph-0-10"
       x="934.9375"
       y="497.56641"
       id="use211" />
    <use
       xlink:href="#glyph-0-1"
       x="939.9375"
       y="497.56641"
       id="use212" />
    <use
       xlink:href="#glyph-0-7"
       x="948.9375"
       y="497.56641"
       id="use213" />
    <use
       xlink:href="#glyph-0-10"
       x="954.9375"
       y="497.56641"
       id="use214" />
    <use
       xlink:href="#glyph-0-4"
       x="959.9375"
       y="497.56641"
       id="use215" />
    <use
       xlink:href="#glyph-0-17"
       x="963.9375"
       y="497.56641"
       id="use216" />
    <use
       xlink:href="#glyph-0-23"
       x="970.9375"
       y="497.56641"
       id="use217" />
    <use
       xlink:href="#glyph-0-2"
       x="979.9375"
       y="497.56641"
       id="use218" />
    <use
       xlink:href="#glyph-0-3"
       x="983.9375"
       y="497.56641"
       id="use219" />
    <use
       xlink:href="#glyph-0-3"
       x="992.9375"
       y="497.56641"
       id="use220" />
    <use
       xlink:href="#glyph-0-2"
       x="1001.9375"
       y="497.56641"
       id="use221" />
    <use
       xlink:href="#glyph-0-3"
       x="1005.9375"
       y="497.56641"
       id="use222" />
    <use
       xlink:href="#glyph-0-24"
       x="1014.9375"
       y="497.56641"
       id="use223" />
  </g>
  <path
     fill="none"
     stroke-width="2"
     stroke-linecap="butt"
     stroke-linejoin="round"
     stroke="#000000"
     stroke-opacity="1"
     stroke-miterlimit="10"
     d="M 767.76287,366.95944 H 1034.9035"
     id="path223" />
  <path
     fill-rule="nonzero"
     fill="#000000"
     fill-opacity="1"
     stroke-width="2"
     stroke-linecap="butt"
     stroke-linejoin="round"
     stroke="#000000"
     stroke-opacity="1"
     stroke-miterlimit="10"
     d="m 1019.9035,360.95944 15,6 -15,6 z m 0,0"
     id="path224" />
  <g
     fill="#000000"
     fill-opacity="1"
     id="g245"
     transform="translate(-43.604317,-200.04056)">
    <use
       xlink:href="#glyph-0-7"
       x="863.4375"
       y="583"
       id="use224" />
    <use
       xlink:href="#glyph-0-12"
       x="868.4375"
       y="583"
       id="use225" />
    <use
       xlink:href="#glyph-0-25"
       x="877.4375"
       y="583"
       id="use226" />
    <use
       xlink:href="#glyph-0-26"
       x="886.4375"
       y="583"
       id="use227" />
    <use
       xlink:href="#glyph-0-12"
       x="895.4375"
       y="583"
       id="use228" />
    <use
       xlink:href="#glyph-0-17"
       x="904.4375"
       y="583"
       id="use229" />
    <use
       xlink:href="#glyph-0-10"
       x="911.4375"
       y="583"
       id="use230" />
    <use
       xlink:href="#glyph-0-27"
       x="916.4375"
       y="583"
       id="use231" />
    <use
       xlink:href="#glyph-0-4"
       x="921.4375"
       y="583"
       id="use232" />
    <use
       xlink:href="#glyph-0-6"
       x="925.4375"
       y="583"
       id="use233" />
    <use
       xlink:href="#glyph-0-1"
       x="933.4375"
       y="583"
       id="use234" />
    <use
       xlink:href="#glyph-0-23"
       x="942.4375"
       y="583"
       id="use235" />
    <use
       xlink:href="#glyph-0-10"
       x="951.4375"
       y="583"
       id="use236" />
    <use
       xlink:href="#glyph-0-26"
       x="956.4375"
       y="583"
       id="use237" />
    <use
       xlink:href="#glyph-0-7"
       x="965.4375"
       y="583"
       id="use238" />
    <use
       xlink:href="#glyph-0-12"
       x="970.4375"
       y="583"
       id="use239" />
    <use
       xlink:href="#glyph-0-4"
       x="979.4375"
       y="583"
       id="use240" />
    <use
       xlink:href="#glyph-0-28"
       x="983.4375"
       y="583"
       id="use241" />
    <use
       xlink:href="#glyph-0-7"
       x="988.4375"
       y="583"
       id="use242" />
    <use
       xlink:href="#glyph-0-1"
       x="994.4375"
       y="583"
       id="use243" />
    <use
       xlink:href="#glyph-0-5"
       x="1003.4375"
       y="583"
       id="use244" />
    <use
       xlink:href="#glyph-0-12"
       x="1017.4375"
       y="583"
       id="use245" />
  </g>
  <path
     fill="none"
     stroke-width="2"
     stroke-linecap="butt"
     stroke-linejoin="round"
     stroke="#000000"
     stroke-opacity="1"
     stroke-miterlimit="10"
     d="M 1034.9035,323.64303 H 767.76287"
     id="path245" />
  <path
     fill-rule="nonzero"
     fill="#000000"
     fill-opacity="1"
     stroke-width="2"
     stroke-linecap="butt"
     stroke-linejoin="round"
     stroke="#000000"
     stroke-opacity="1"
     stroke-miterlimit="10"
     d="m 782.76287,329.64303 -15,-6 15,-6 z m 0,0"
     id="path246" />
  <g
     fill="#000000"
     fill-opacity="1"
     id="g259"
     transform="translate(-43.604317,-200.04056)">
    <use
       xlink:href="#glyph-0-7"
       x="896.9375"
       y="539.68359"
       id="use246" />
    <use
       xlink:href="#glyph-0-12"
       x="901.9375"
       y="539.68359"
       id="use247" />
    <use
       xlink:href="#glyph-0-17"
       x="910.9375"
       y="539.68359"
       id="use248" />
    <use
       xlink:href="#glyph-0-26"
       x="917.9375"
       y="539.68359"
       id="use249" />
    <use
       xlink:href="#glyph-0-11"
       x="926.9375"
       y="539.68359"
       id="use250" />
    <use
       xlink:href="#glyph-0-10"
       x="930.9375"
       y="539.68359"
       id="use251" />
    <use
       xlink:href="#glyph-0-27"
       x="935.9375"
       y="539.68359"
       id="use252" />
    <use
       xlink:href="#glyph-0-4"
       x="940.9375"
       y="539.68359"
       id="use253" />
    <use
       xlink:href="#glyph-0-8"
       x="944.9375"
       y="539.68359"
       id="use254" />
    <use
       xlink:href="#glyph-0-29"
       x="953.9375"
       y="539.68359"
       id="use255" />
    <use
       xlink:href="#glyph-0-30"
       x="961.9375"
       y="539.68359"
       id="use256" />
    <use
       xlink:href="#glyph-0-3"
       x="966.9375"
       y="539.68359"
       id="use257" />
    <use
       xlink:href="#glyph-0-8"
       x="975.9375"
       y="539.68359"
       id="use258" />
    <use
       xlink:href="#glyph-0-29"
       x="984.9375"
       y="539.68359"
       id="use259" />
  </g>
  <path
     fill="none"
     stroke-width="2"
     stroke-linecap="butt"
     stroke-linejoin="round"
     stroke="#000000"
     stroke-opacity="1"
     stroke-miterlimit="10"
     d="M 1034.9035,414.32663 H 767.76287"
     id="path259" />
  <path
     fill-rule="nonzero"
     fill="#000000"
     fill-opacity="1"
     stroke-width="2"
     stroke-linecap="butt"
     stroke-linejoin="round"
     stroke="#000000"
     stroke-opacity="1"
     stroke-miterlimit="10"
     d="m 782.76287,420.32663 -15,-6 15,-6 z m 0,0"
     id="path260" />
  <g
     fill="#000000"
     fill-opacity="1"
     id="g277"
     transform="translate(-43.604317,-200.04056)">
    <use
       xlink:href="#glyph-0-7"
       x="880.4375"
       y="630.36719"
       id="use260" />
    <use
       xlink:href="#glyph-0-12"
       x="885.4375"
       y="630.36719"
       id="use261" />
    <use
       xlink:href="#glyph-0-17"
       x="894.4375"
       y="630.36719"
       id="use262" />
    <use
       xlink:href="#glyph-0-26"
       x="901.4375"
       y="630.36719"
       id="use263" />
    <use
       xlink:href="#glyph-0-11"
       x="910.4375"
       y="630.36719"
       id="use264" />
    <use
       xlink:href="#glyph-0-10"
       x="914.4375"
       y="630.36719"
       id="use265" />
    <use
       xlink:href="#glyph-0-27"
       x="919.4375"
       y="630.36719"
       id="use266" />
    <use
       xlink:href="#glyph-0-4"
       x="924.4375"
       y="630.36719"
       id="use267" />
    <use
       xlink:href="#glyph-0-31"
       x="928.4375"
       y="630.36719"
       id="use268" />
    <use
       xlink:href="#glyph-0-19"
       x="932.4375"
       y="630.36719"
       id="use269" />
    <use
       xlink:href="#glyph-0-32"
       x="940.4375"
       y="630.36719"
       id="use270" />
    <use
       xlink:href="#glyph-0-13"
       x="949.4375"
       y="630.36719"
       id="use271" />
    <use
       xlink:href="#glyph-0-4"
       x="960.4375"
       y="630.36719"
       id="use272" />
    <use
       xlink:href="#glyph-0-2"
       x="964.4375"
       y="630.36719"
       id="use273" />
    <use
       xlink:href="#glyph-0-5"
       x="968.4375"
       y="630.36719"
       id="use274" />
    <use
       xlink:href="#glyph-0-1"
       x="982.4375"
       y="630.36719"
       id="use275" />
    <use
       xlink:href="#glyph-0-24"
       x="991.4375"
       y="630.36719"
       id="use276" />
    <use
       xlink:href="#glyph-0-12"
       x="1000.4375"
       y="630.36719"
       id="use277" />
  </g>
  <path
     fill="none"
     stroke-width="2"
     stroke-linecap="butt"
     stroke-linejoin="round"
     stroke="#000000"
     stroke-opacity="1"
     stroke-miterlimit="10"
     d="M 767.76287,462.46334 H 1034.9035"
     id="path277" />
  <path
     fill-rule="nonzero"
     fill="#000000"
     fill-opacity="1"
     stroke-width="2"
     stroke-linecap="butt"
     stroke-linejoin="round"
     stroke="#000000"
     stroke-opacity="1"
     stroke-miterlimit="10"
     d="m 1019.9035,456.46334 15,6 -15,6 z m 0,0"
     id="path278" />
  <g
     fill="#000000"
     fill-opacity="1"
     id="g299"
     transform="translate(-43.604317,-200.04056)">
    <use
       xlink:href="#glyph-0-7"
       x="866.9375"
       y="678.50391"
       id="use278" />
    <use
       xlink:href="#glyph-0-12"
       x="871.9375"
       y="678.50391"
       id="use279" />
    <use
       xlink:href="#glyph-0-25"
       x="880.9375"
       y="678.50391"
       id="use280" />
    <use
       xlink:href="#glyph-0-26"
       x="889.9375"
       y="678.50391"
       id="use281" />
    <use
       xlink:href="#glyph-0-12"
       x="898.9375"
       y="678.50391"
       id="use282" />
    <use
       xlink:href="#glyph-0-17"
       x="907.9375"
       y="678.50391"
       id="use283" />
    <use
       xlink:href="#glyph-0-10"
       x="914.9375"
       y="678.50391"
       id="use284" />
    <use
       xlink:href="#glyph-0-27"
       x="919.9375"
       y="678.50391"
       id="use285" />
    <use
       xlink:href="#glyph-0-4"
       x="924.9375"
       y="678.50391"
       id="use286" />
    <use
       xlink:href="#glyph-0-17"
       x="928.9375"
       y="678.50391"
       id="use287" />
    <use
       xlink:href="#glyph-0-10"
       x="935.9375"
       y="678.50391"
       id="use288" />
    <use
       xlink:href="#glyph-0-8"
       x="940.9375"
       y="678.50391"
       id="use289" />
    <use
       xlink:href="#glyph-0-23"
       x="949.9375"
       y="678.50391"
       id="use290" />
    <use
       xlink:href="#glyph-0-4"
       x="958.9375"
       y="678.50391"
       id="use291" />
    <use
       xlink:href="#glyph-0-17"
       x="962.9375"
       y="678.50391"
       id="use292" />
    <use
       xlink:href="#glyph-0-23"
       x="969.9375"
       y="678.50391"
       id="use293" />
    <use
       xlink:href="#glyph-0-2"
       x="978.9375"
       y="678.50391"
       id="use294" />
    <use
       xlink:href="#glyph-0-3"
       x="982.9375"
       y="678.50391"
       id="use295" />
    <use
       xlink:href="#glyph-0-3"
       x="991.9375"
       y="678.50391"
       id="use296" />
    <use
       xlink:href="#glyph-0-2"
       x="1000.9375"
       y="678.50391"
       id="use297" />
    <use
       xlink:href="#glyph-0-3"
       x="1004.9375"
       y="678.50391"
       id="use298" />
    <use
       xlink:href="#glyph-0-24"
       x="1013.9375"
       y="678.50391"
       id="use299" />
  </g>
  <path
     fill="none"
     stroke-width="2"
     stroke-linecap="butt"
     stroke-linejoin="round"
     stroke="#000000"
     stroke-opacity="1"
     stroke-miterlimit="10"
     d="M 1034.9035,501.55319 H 767.76287"
     id="path299" />
  <path
     fill-rule="nonzero"
     fill="#000000"
     fill-opacity="1"
     stroke-width="2"
     stroke-linecap="butt"
     stroke-linejoin="round"
     stroke="#000000"
     stroke-opacity="1"
     stroke-miterlimit="10"
     d="m 782.76287,507.55319 -15,-6 15,-6 z m 0,0"
     id="path300" />
  <g
     fill="#000000"
     fill-opacity="1"
     id="g313"
     transform="translate(-43.604317,-200.04056)">
    <use
       xlink:href="#glyph-0-7"
       x="896.9375"
       y="717.59375"
       id="use300" />
    <use
       xlink:href="#glyph-0-12"
       x="901.9375"
       y="717.59375"
       id="use301" />
    <use
       xlink:href="#glyph-0-17"
       x="910.9375"
       y="717.59375"
       id="use302" />
    <use
       xlink:href="#glyph-0-26"
       x="917.9375"
       y="717.59375"
       id="use303" />
    <use
       xlink:href="#glyph-0-11"
       x="926.9375"
       y="717.59375"
       id="use304" />
    <use
       xlink:href="#glyph-0-10"
       x="930.9375"
       y="717.59375"
       id="use305" />
    <use
       xlink:href="#glyph-0-27"
       x="935.9375"
       y="717.59375"
       id="use306" />
    <use
       xlink:href="#glyph-0-4"
       x="940.9375"
       y="717.59375"
       id="use307" />
    <use
       xlink:href="#glyph-0-8"
       x="944.9375"
       y="717.59375"
       id="use308" />
    <use
       xlink:href="#glyph-0-29"
       x="953.9375"
       y="717.59375"
       id="use309" />
    <use
       xlink:href="#glyph-0-30"
       x="961.9375"
       y="717.59375"
       id="use310" />
    <use
       xlink:href="#glyph-0-3"
       x="966.9375"
       y="717.59375"
       id="use311" />
    <use
       xlink:href="#glyph-0-8"
       x="975.9375"
       y="717.59375"
       id="use312" />
    <use
       xlink:href="#glyph-0-29"
       x="984.9375"
       y="717.59375"
       id="use313" />
  </g>
  <path
     fill="none"
     stroke-width="2"
     stroke-linecap="butt"
     stroke-linejoin="round"
     stroke="#000000"
     stroke-opacity="1"
     stroke-miterlimit="10"
     d="M 767.76288,514.81491 H 483.43865"
     id="path313" />
  <path
     fill-rule="nonzero"
     fill="#000000"
     fill-opacity="1"
     stroke-width="2"
     stroke-linecap="butt"
     stroke-linejoin="round"
     stroke="#000000"
     stroke-opacity="1"
     stroke-miterlimit="10"
     d="m 498.43865,520.81491 -15,-6 15,-6 z m 0,0"
     id="path314" />
  <g
     fill="#000000"
     fill-opacity="1"
     id="g327"
     transform="translate(-43.604317,-200.04056)">
    <use
       xlink:href="#glyph-0-7"
       x="621.20312"
       y="730.85547"
       id="use314" />
    <use
       xlink:href="#glyph-0-12"
       x="626.20312"
       y="730.85547"
       id="use315" />
    <use
       xlink:href="#glyph-0-17"
       x="635.20312"
       y="730.85547"
       id="use316" />
    <use
       xlink:href="#glyph-0-26"
       x="642.20312"
       y="730.85547"
       id="use317" />
    <use
       xlink:href="#glyph-0-11"
       x="651.20312"
       y="730.85547"
       id="use318" />
    <use
       xlink:href="#glyph-0-10"
       x="655.20312"
       y="730.85547"
       id="use319" />
    <use
       xlink:href="#glyph-0-27"
       x="660.20312"
       y="730.85547"
       id="use320" />
    <use
       xlink:href="#glyph-0-4"
       x="665.20312"
       y="730.85547"
       id="use321" />
    <use
       xlink:href="#glyph-0-8"
       x="669.20312"
       y="730.85547"
       id="use322" />
    <use
       xlink:href="#glyph-0-29"
       x="678.20312"
       y="730.85547"
       id="use323" />
    <use
       xlink:href="#glyph-0-30"
       x="686.20312"
       y="730.85547"
       id="use324" />
    <use
       xlink:href="#glyph-0-3"
       x="691.20312"
       y="730.85547"
       id="use325" />
    <use
       xlink:href="#glyph-0-8"
       x="700.20312"
       y="730.85547"
       id="use326" />
    <use
       xlink:href="#glyph-0-29"
       x="709.20312"
       y="730.85547"
       id="use327" />
  </g>
  <path
     fill="none"
     stroke-width="2"
     stroke-linecap="butt"
     stroke-linejoin="round"
     stroke="#000000"
     stroke-opacity="1"
     stroke-miterlimit="10"
     d="m 1034.9034,290.90866 h 39.211 v 20 h -39.211"
     id="path327" />
  <path
     fill-rule="nonzero"
     fill="#000000"
     fill-opacity="1"
     stroke-width="2"
     stroke-linecap="butt"
     stroke-linejoin="round"
     stroke="#000000"
     stroke-opacity="1"
     stroke-miterlimit="10"
     d="m 1049.9034,316.90866 -15,-6 15,-6 z m 0,0"
     id="path328" />
  <g
     fill="#000000"
     fill-opacity="1"
     id="g342"
     transform="translate(-43.604317,-200.04056)">
    <use
       xlink:href="#glyph-0-17"
       x="1120.7188"
       y="505.44922"
       id="use328" />
    <use
       xlink:href="#glyph-0-10"
       x="1127.7188"
       y="505.44922"
       id="use329" />
    <use
       xlink:href="#glyph-0-1"
       x="1132.7188"
       y="505.44922"
       id="use330" />
    <use
       xlink:href="#glyph-0-7"
       x="1141.7188"
       y="505.44922"
       id="use331" />
    <use
       xlink:href="#glyph-0-10"
       x="1147.7188"
       y="505.44922"
       id="use332" />
    <use
       xlink:href="#glyph-0-33"
       x="1152.7188"
       y="505.44922"
       id="use333" />
    <use
       xlink:href="#glyph-0-23"
       x="1161.7188"
       y="505.44922"
       id="use334" />
    <use
       xlink:href="#glyph-0-2"
       x="1170.7188"
       y="505.44922"
       id="use335" />
    <use
       xlink:href="#glyph-0-3"
       x="1174.7188"
       y="505.44922"
       id="use336" />
    <use
       xlink:href="#glyph-0-3"
       x="1183.7188"
       y="505.44922"
       id="use337" />
    <use
       xlink:href="#glyph-0-2"
       x="1192.7188"
       y="505.44922"
       id="use338" />
    <use
       xlink:href="#glyph-0-3"
       x="1196.7188"
       y="505.44922"
       id="use339" />
    <use
       xlink:href="#glyph-0-24"
       x="1205.7188"
       y="505.44922"
       id="use340" />
    <use
       xlink:href="#glyph-0-18"
       x="1214.7188"
       y="505.44922"
       id="use341" />
    <use
       xlink:href="#glyph-0-21"
       x="1219.7188"
       y="505.44922"
       id="use342" />
  </g>
  <path
     fill="none"
     stroke-width="2"
     stroke-linecap="butt"
     stroke-linejoin="round"
     stroke="#000000"
     stroke-opacity="1"
     stroke-miterlimit="10"
     d="m 1034.9034,470.88913 h 36.6758 v 20 h -36.6758"
     id="path342" />
  <path
     fill-rule="nonzero"
     fill="#000000"
     fill-opacity="1"
     stroke-width="2"
     stroke-linecap="butt"
     stroke-linejoin="round"
     stroke="#000000"
     stroke-opacity="1"
     stroke-miterlimit="10"
     d="m 1049.9034,496.88913 -15,-6 15,-6 z m 0,0"
     id="path343" />
  <g
     fill="#000000"
     fill-opacity="1"
     id="g356"
     transform="translate(-43.604317,-200.04056)">
    <use
       xlink:href="#glyph-0-17"
       x="1118.1836"
       y="685.42969"
       id="use343" />
    <use
       xlink:href="#glyph-0-10"
       x="1125.1836"
       y="685.42969"
       id="use344" />
    <use
       xlink:href="#glyph-0-8"
       x="1130.1836"
       y="685.42969"
       id="use345" />
    <use
       xlink:href="#glyph-0-23"
       x="1139.1836"
       y="685.42969"
       id="use346" />
    <use
       xlink:href="#glyph-0-33"
       x="1148.1836"
       y="685.42969"
       id="use347" />
    <use
       xlink:href="#glyph-0-23"
       x="1157.1836"
       y="685.42969"
       id="use348" />
    <use
       xlink:href="#glyph-0-2"
       x="1166.1836"
       y="685.42969"
       id="use349" />
    <use
       xlink:href="#glyph-0-3"
       x="1170.1836"
       y="685.42969"
       id="use350" />
    <use
       xlink:href="#glyph-0-3"
       x="1179.1836"
       y="685.42969"
       id="use351" />
    <use
       xlink:href="#glyph-0-2"
       x="1188.1836"
       y="685.42969"
       id="use352" />
    <use
       xlink:href="#glyph-0-3"
       x="1192.1836"
       y="685.42969"
       id="use353" />
    <use
       xlink:href="#glyph-0-24"
       x="1201.1836"
       y="685.42969"
       id="use354" />
    <use
       xlink:href="#glyph-0-18"
       x="1210.1836"
       y="685.42969"
       id="use355" />
    <use
       xlink:href="#glyph-0-21"
       x="1215.1836"
       y="685.42969"
       id="use356" />
  </g>
  <path
     fill="none"
     stroke-width="2"
     stroke-linecap="butt"
     stroke-linejoin="round"
     stroke="#000000"
     stroke-opacity="1"
     stroke-miterlimit="10"
     d="m 1034.9034,380.64694 h 38.4024 v 21.49219 h -38.4024"
     id="path356" />
  <path
     fill-rule="nonzero"
     fill="#000000"
     fill-opacity="1"
     stroke-width="2"
     stroke-linecap="butt"
     stroke-linejoin="round"
     stroke="#000000"
     stroke-opacity="1"
     stroke-miterlimit="10"
     d="m 1049.9034,408.13913 -15,-6 15,-6 z m 0,0"
     id="path357" />
  <g
     fill="#000000"
     fill-opacity="1"
     id="g377"
     transform="translate(-43.604317,-200.04056)">
    <use
       xlink:href="#glyph-0-6"
       x="1119.9102"
       y="595.93359"
       id="use357" />
    <use
       xlink:href="#glyph-0-1"
       x="1127.9102"
       y="595.93359"
       id="use358" />
    <use
       xlink:href="#glyph-0-23"
       x="1136.9102"
       y="595.93359"
       id="use359" />
    <use
       xlink:href="#glyph-0-10"
       x="1145.9102"
       y="595.93359"
       id="use360" />
    <use
       xlink:href="#glyph-0-26"
       x="1150.9102"
       y="595.93359"
       id="use361" />
    <use
       xlink:href="#glyph-0-7"
       x="1159.9102"
       y="595.93359"
       id="use362" />
    <use
       xlink:href="#glyph-0-12"
       x="1164.9102"
       y="595.93359"
       id="use363" />
    <use
       xlink:href="#glyph-0-34"
       x="1173.9102"
       y="595.93359"
       id="use364" />
    <use
       xlink:href="#glyph-0-3"
       x="1183.9102"
       y="595.93359"
       id="use365" />
    <use
       xlink:href="#glyph-0-15"
       x="1192.9102"
       y="595.93359"
       id="use366" />
    <use
       xlink:href="#glyph-0-33"
       x="1201.9102"
       y="595.93359"
       id="use367" />
    <use
       xlink:href="#glyph-0-12"
       x="1210.9102"
       y="595.93359"
       id="use368" />
    <use
       xlink:href="#glyph-0-3"
       x="1219.9102"
       y="595.93359"
       id="use369" />
    <use
       xlink:href="#glyph-0-15"
       x="1228.9102"
       y="595.93359"
       id="use370" />
    <use
       xlink:href="#glyph-0-35"
       x="1237.9102"
       y="595.93359"
       id="use371" />
    <use
       xlink:href="#glyph-0-7"
       x="1244.9102"
       y="595.93359"
       id="use372" />
    <use
       xlink:href="#glyph-0-1"
       x="1250.9102"
       y="595.93359"
       id="use373" />
    <use
       xlink:href="#glyph-0-5"
       x="1259.9102"
       y="595.93359"
       id="use374" />
    <use
       xlink:href="#glyph-0-12"
       x="1273.9102"
       y="595.93359"
       id="use375" />
    <use
       xlink:href="#glyph-0-18"
       x="1282.9102"
       y="595.93359"
       id="use376" />
    <use
       xlink:href="#glyph-0-21"
       x="1287.9102"
       y="595.93359"
       id="use377" />
  </g>
  <path
     fill="none"
     stroke-width="1.88148"
     stroke-linecap="butt"
     stroke-linejoin="round"
     stroke="#000000"
     stroke-opacity="1"
     stroke-miterlimit="10"
     d="m 214.28525,117.66059 h -47.2644 v 21.17973 h 47.2644"
     id="path377" />
  <path
     fill-rule="nonzero"
     fill="#000000"
     fill-opacity="1"
     stroke-width="2"
     stroke-linecap="butt"
     stroke-linejoin="round"
     stroke="#000000"
     stroke-opacity="1"
     stroke-miterlimit="10"
     d="m 199.49726,132.47506 15,6 -15,6 z m 0,0"
     id="path378" />
  <g
     fill="#000000"
     fill-opacity="1"
     id="g397"
     transform="translate(-53.520308,-200.04056)">
    <use
       xlink:href="#glyph-0-12"
       x="62.5"
       y="332.78906"
       id="use378" />
    <use
       xlink:href="#glyph-0-17"
       x="71.5"
       y="332.78906"
       id="use379" />
    <use
       xlink:href="#glyph-0-10"
       x="78.5"
       y="332.78906"
       id="use380" />
    <use
       xlink:href="#glyph-0-2"
       x="83.5"
       y="332.78906"
       id="use381" />
    <use
       xlink:href="#glyph-0-5"
       x="87.5"
       y="332.78906"
       id="use382" />
    <use
       xlink:href="#glyph-0-1"
       x="101.5"
       y="332.78906"
       id="use383" />
    <use
       xlink:href="#glyph-0-10"
       x="110.5"
       y="332.78906"
       id="use384" />
    <use
       xlink:href="#glyph-0-12"
       x="115.5"
       y="332.78906"
       id="use385" />
    <use
       xlink:href="#glyph-0-19"
       x="124.5"
       y="332.78906"
       id="use386" />
    <use
       xlink:href="#glyph-0-8"
       x="132.5"
       y="332.78906"
       id="use387" />
    <use
       xlink:href="#glyph-0-17"
       x="141.5"
       y="332.78906"
       id="use388" />
    <use
       xlink:href="#glyph-0-12"
       x="148.5"
       y="332.78906"
       id="use389" />
    <use
       xlink:href="#glyph-0-36"
       x="157.5"
       y="332.78906"
       id="use390" />
    <use
       xlink:href="#glyph-0-8"
       x="166.5"
       y="332.78906"
       id="use391" />
    <use
       xlink:href="#glyph-0-14"
       x="175.5"
       y="332.78906"
       id="use392" />
    <use
       xlink:href="#glyph-0-8"
       x="184.5"
       y="332.78906"
       id="use393" />
    <use
       xlink:href="#glyph-0-10"
       x="193.5"
       y="332.78906"
       id="use394" />
    <use
       xlink:href="#glyph-0-17"
       x="198.5"
       y="332.78906"
       id="use395" />
    <use
       xlink:href="#glyph-0-18"
       x="205.5"
       y="332.78906"
       id="use396" />
    <use
       xlink:href="#glyph-0-21"
       x="210.5"
       y="332.78906"
       id="use397" />
  </g>
</svg>
