<!DOCTYPE svg PUBLIC "-//W3C//DTD SVG 1.1//EN" "http://www.w3.org/Graphics/SVG/1.1/DTD/svg11.dtd">
<!-- Uploaded to: SVG Repo, www.svgrepo.com, Transformed by: SVG Repo Mixer Tools -->
<svg fill="#FFFFFF" width="800px" height="800px" viewBox="0 0 512 512" xmlns="http://www.w3.org/2000/svg" stroke="#FFFFFF">
<g id="SVGRepo_bgCarrier" stroke-width="0"/>
<g id="SVGRepo_tracerCarrier" stroke-linecap="round" stroke-linejoin="round"/>
<g id="SVGRepo_iconCarrier">
<path fill-rule="evenodd" d="M192,1.42108547e-14 L384,153.6 L384,384 L213.333333,384 L213.333333,277.333333 L170.666667,277.333333 L170.666667,384 L1.42108547e-14,384 L1.42108547e-14,153.6 L192,1.42108547e-14 Z M192,53.3333333 L42.6666667,170.666667 L42.6666667,341.333333 L128,341.333333 L128,234.666667 L256,234.666667 L256,341.333333 L341.333333,341.333333 L341.333333,170.666667 L192,53.3333333 Z" transform="translate(64 64)"/>
</g>
</svg>